Generalised Additive Modelling Interface for fable • fable.gam
…
# A tibble: 4 × 13
  Region    State  Purpose .model .type        ME  RMSE   MAE    MPE  MAPE  MASE
  <chr>     <chr>  <chr>   <chr>  <chr>     <dbl> <dbl> <dbl>  <dbl> <dbl> <dbl>
1 Melbourne Victo… Busine… mygam  Trai…  1.62e-14  52.0  39.7 -1.44   8.88 0.640
2 Melbourne Victo… Visiti… mygam  Trai…  9.20e-14  52.1  41.4 -0.751  6.76 0.660
3 Melbourne Victo… Holiday mygam  Trai…  1.37e-13  50.1  38.9 -0.990  7.79 0.706
4 Melbourne Victo… Other   mygam  Trai… -6.66e-15  19.1  15.8 -4.64  18.1  0.710
# ℹ 2 more variables: RMSSE <dbl>, ACF1 <dbl>

Another common task is to extract point forecasts and confidence intervals from the forecast distribution. The hilo function from the distributional package knows how to automatically handle models fit in fable:

fc |>
  hilo(level = c(80, 95))

# A tsibble: 80 x 9 [1Q]
# Key:       Region, State, Purpose, .model [4]
   Region    State    Purpose  .model Quarter
   <chr>     <chr>    <chr>    <chr>    <qtr>
 1 Melbourne Victoria Business mygam  2018 Q1
 2 Melbourne Victoria Business mygam  2018 Q2
 3 Melbourne Victoria Business mygam  2018 Q3
 4 Melbourne Victoria Business mygam  2018 Q4
 5 Melbourne Victoria Business mygam  2019 Q1
 6 Melbourne Victoria Business mygam  2019 Q2
 7 Melbourne Victoria Business mygam  2019 Q3
 8 Melbourne Victoria Business mygam  2019 Q4
 9 Melbourne Victoria Business mygam  2020 Q1
10 Melbourne Victoria Business mygam  2020 Q2
# ℹ 70 more rows
# ℹ 4 more variables: Trips <dist>, .mean <dbl>, `80%` <hilo>, `95%` <hilo>
…
