…
Another common task is to extract point forecasts and confidence
intervals from the forecast distribution. The
[`hilo`](https://pkg.mitchelloharawild.com/distributional/reference/hilo.html)
function from the
[`distributional`](https://github.com/mitchelloharawild/distributional)
package knows how to automatically handle models fit in `fable`:

``` r
fc |>
  hilo(level = c(80, 95))
```

    # A tsibble: 80 x 9 [1Q]
    # Key:       Region, State, Purpose, .model [4]
       Region    State    Purpose  .model Quarter
       <chr>     <chr>    <chr>    <chr>    <qtr>
     1 Melbourne Victoria Business mygam  2018 Q1
     2 Melbourne Victoria Business mygam  2018 Q2
     3 Melbourne Victoria Business mygam  2018 Q3
     4 Melbourne Victoria Business mygam  2018 Q4
     5 Melbourne Victoria Business mygam  2019 Q1
     6 Melbourne Victoria Business mygam  2019 Q2
     7 Melbourne Victoria Business mygam  2019 Q3
     8 Melbourne Victoria Business mygam  2019 Q4
     9 Melbourne Victoria Business mygam  2020 Q1
    10 Melbourne Victoria Business mygam  2020 Q2
    # ℹ 70 more rows
    # ℹ 4 more variables: Trips <dist>, .mean <dbl>, `80%` <hilo>, `95%` <hilo>
…
